<?xml version="1.0" encoding="utf-8"?>
<!-- Generator: Adobe Illustrator 25.2.3, SVG Export Plug-In . SVG Version: 6.00 Build 0)  -->
<svg version="1.1" id="Layer_1" xmlns="http://www.w3.org/2000/svg" xmlns:xlink="http://www.w3.org/1999/xlink" x="0px" y="0px"
	 viewBox="0 0 226.1 61.4" style="enable-background:new 0 0 226.1 61.4;" xml:space="preserve">
<g>
	<g>
		<g>
			<path d="M8.2,14.2h10.4v6.7H8.2v13.7H0V0.7h21.9v6.7H8.2V14.2z"/>
			<path d="M60.6,17.7c0,9.7-7.9,17.5-17.7,17.5c-10.1,0-18.1-7.7-18.1-17.5c0-4.9,2-9.5,5.7-13C33.6,1.7,38.1,0,43,0
				C53,0,60.6,7.6,60.6,17.7z M33.1,17.6c0,5.6,4.2,10,9.6,10c5.3,0,9.6-4.4,9.6-9.8c0-5.8-4.1-10.2-9.5-10.2
				C37.2,7.6,33.1,11.9,33.1,17.6z"/>
			<path d="M73.7,34.6h-8.2V0.7h11c4.5,0,7.7,0.8,10,2.5C88.7,5,90,8.1,90,11.8c0,5.1-2.2,8.6-6.6,10.3L91,34.6h-9.9l-7.4-13.1V34.6
				z M76.3,16.8c3.4,0,5.4-1.7,5.4-4.7c0-2.8-1.9-4.7-4.9-4.7h-3.2v9.4H76.3z"/>
			<path d="M109.8,34.6h-8.2V7.3h-7.8V0.7h23.8v6.7h-7.8V34.6z"/>
			<path d="M131.2,13.4c0,2.4-1.8,4.2-4.3,4.2c-2.5,0-4.3-1.8-4.3-4.3s1.8-4.3,4.3-4.3C129.5,9.1,131.2,10.9,131.2,13.4z
				 M131.2,31.1c0,2.4-1.8,4.2-4.3,4.2c-2.5,0-4.3-1.8-4.3-4.3c0-2.5,1.8-4.3,4.3-4.3C129.5,26.8,131.2,28.6,131.2,31.1z"/>
			<path d="M159.2,27.9v6.7h-19.3V0.7h8.2v27.2H159.2z"/>
			<path d="M196.5,17.7c0,9.7-7.9,17.5-17.7,17.5c-10.1,0-18.1-7.7-18.1-17.5c0-4.9,2-9.5,5.7-13C169.6,1.7,174,0,179,0
				C189,0,196.5,7.6,196.5,17.7z M169,17.6c0,5.6,4.2,10,9.6,10c5.3,0,9.6-4.4,9.6-9.8c0-5.8-4.1-10.2-9.5-10.2
				C173.1,7.6,169,11.9,169,17.6z"/>
			<path d="M205.7,34.6h-9.5l10.4-18.2l-8.8-15.7h9.4l4,8.1l4.3-8.1h9.4l-9,15.7l10.2,18.2h-9.4l-5.5-10.9L205.7,34.6z"/>
		</g>
	</g>
	<g>
		<path d="M0,45h1.4v5.4h0.1c0.5-1.1,1.4-1.7,2.6-1.7c2.2,0,3.7,1.8,3.7,4.7c0,2.9-1.4,4.7-3.7,4.7c-1.2,0-2.1-0.6-2.6-1.7H1.4v1.5
			H0V45z M6.3,54.2v-1.5c0-1.6-1-2.7-2.5-2.7c-1.3,0-2.3,0.7-2.3,1.7V55c0,1.2,1,1.8,2.3,1.8C5.3,56.8,6.3,55.8,6.3,54.2z"/>
		<path d="M15.6,56.4L15.6,56.4c-0.4,0.9-1.1,1.7-2.6,1.7c-1.8,0-3-1.3-3-3.4v-5.8h1.4v5.5c0,1.6,0.7,2.4,2.1,2.4
			c1.1,0,2.2-0.5,2.2-1.7v-6.2H17v9h-1.4V56.4z"/>
		<path d="M19.1,56.3l1-0.8c0.7,0.9,1.5,1.4,2.7,1.4c1.2,0,1.9-0.5,1.9-1.5c0-0.7-0.4-1.2-1.6-1.4l-0.7-0.1
			c-1.7-0.2-2.9-0.9-2.9-2.6c0-1.8,1.4-2.6,3.2-2.6c1.4,0,2.4,0.5,3.1,1.4L24.9,51c-0.4-0.6-1.2-1.1-2.3-1.1c-1.1,0-1.8,0.5-1.8,1.4
			c0,0.9,0.6,1.2,1.7,1.4l0.7,0.1c2,0.3,2.8,1.2,2.8,2.5c0,1.7-1.3,2.8-3.3,2.8C21,58.1,19.9,57.4,19.1,56.3z"/>
		<path d="M28.2,46v-0.2c0-0.5,0.3-0.8,0.9-0.8c0.6,0,0.9,0.3,0.9,0.8V46c0,0.5-0.3,0.8-0.9,0.8C28.4,46.8,28.2,46.5,28.2,46z
			 M28.3,48.9h1.4v9h-1.4V48.9z"/>
		<path d="M32.5,57.9v-9h1.4v1.5H34c0.4-1,1.2-1.7,2.5-1.7c1.8,0,3,1.3,3,3.4v5.8h-1.4v-5.5c0-1.6-0.7-2.4-2-2.4
			c-1.1,0-2.2,0.6-2.2,1.7v6.2H32.5z"/>
		<path d="M41.8,53.4c0-2.9,1.6-4.7,4-4.7c2.4,0,3.9,1.8,3.9,4.4v0.7h-6.5v0.4c0,1.6,1,2.7,2.7,2.7c1.1,0,2-0.6,2.5-1.6l1,0.7
			c-0.6,1.2-1.9,2.1-3.6,2.1C43.4,58.1,41.8,56.3,41.8,53.4z M43.3,52.6v0.1h5v-0.2c0-1.6-1-2.6-2.4-2.6
			C44.3,49.9,43.3,51,43.3,52.6z"/>
		<path d="M51.2,56.3l1-0.8c0.7,0.9,1.5,1.4,2.7,1.4c1.2,0,1.9-0.5,1.9-1.5c0-0.7-0.4-1.2-1.6-1.4l-0.7-0.1
			c-1.7-0.2-2.9-0.9-2.9-2.6c0-1.8,1.4-2.6,3.2-2.6c1.4,0,2.4,0.5,3.1,1.4L57,51c-0.4-0.6-1.2-1.1-2.3-1.1c-1.1,0-1.8,0.5-1.8,1.4
			c0,0.9,0.6,1.2,1.7,1.4l0.7,0.1c2,0.3,2.8,1.2,2.8,2.5c0,1.7-1.3,2.8-3.3,2.8C53.1,58.1,52,57.4,51.2,56.3z"/>
		<path d="M59.8,56.3l1-0.8c0.7,0.9,1.5,1.4,2.7,1.4c1.2,0,1.9-0.5,1.9-1.5c0-0.7-0.4-1.2-1.6-1.4l-0.7-0.1
			c-1.7-0.2-2.9-0.9-2.9-2.6c0-1.8,1.4-2.6,3.2-2.6c1.4,0,2.4,0.5,3.1,1.4L65.6,51c-0.4-0.6-1.2-1.1-2.3-1.1c-1.1,0-1.8,0.5-1.8,1.4
			c0,0.9,0.6,1.2,1.7,1.4l0.7,0.1c2,0.3,2.8,1.2,2.8,2.5c0,1.7-1.3,2.8-3.3,2.8C61.7,58.1,60.6,57.4,59.8,56.3z"/>
		<path d="M72.7,56.3l1-0.8c0.7,0.9,1.5,1.4,2.7,1.4c1.2,0,1.9-0.5,1.9-1.5c0-0.7-0.4-1.2-1.6-1.4L76,53.9c-1.7-0.2-2.9-0.9-2.9-2.6
			c0-1.8,1.4-2.6,3.2-2.6c1.4,0,2.4,0.5,3.1,1.4L78.5,51c-0.4-0.6-1.2-1.1-2.3-1.1c-1.1,0-1.8,0.5-1.8,1.4c0,0.9,0.6,1.2,1.7,1.4
			l0.7,0.1c2,0.3,2.8,1.2,2.8,2.5c0,1.7-1.3,2.8-3.3,2.8C74.6,58.1,73.6,57.4,72.7,56.3z"/>
		<path d="M81.4,53.4c0-2.9,1.6-4.7,4-4.7c2.4,0,3.9,1.8,3.9,4.4v0.7h-6.5v0.4c0,1.6,1,2.7,2.7,2.7c1.1,0,2-0.6,2.5-1.6l1,0.7
			c-0.6,1.2-1.9,2.1-3.6,2.1C83,58.1,81.4,56.3,81.4,53.4z M82.9,52.6v0.1h5v-0.2c0-1.6-1-2.6-2.4-2.6C83.9,49.9,82.9,51,82.9,52.6z
			"/>
		<path d="M91.1,53.4c0-2.9,1.5-4.7,4-4.7c1.8,0,2.8,0.9,3.4,2.1l-1.2,0.6c-0.3-0.9-1.1-1.5-2.2-1.5c-1.7,0-2.5,1.1-2.5,2.7v1.5
			c0,1.6,0.9,2.7,2.5,2.7c1.1,0,2-0.5,2.4-1.6l1,0.7c-0.6,1.3-1.7,2.1-3.4,2.1C92.6,58.1,91.1,56.3,91.1,53.4z"/>
		<path d="M106,56.4L106,56.4c-0.4,0.9-1.1,1.7-2.6,1.7c-1.8,0-3-1.3-3-3.4v-5.8h1.4v5.5c0,1.6,0.7,2.4,2.1,2.4
			c1.1,0,2.2-0.5,2.2-1.7v-6.2h1.4v9H106V56.4z"/>
		<path d="M110.2,57.9v-9h1.4v1.7h0.1c0.3-0.9,1.1-1.7,2.6-1.7h0.5v1.4H114c-1.5,0-2.4,0.6-2.4,1.5v6.1H110.2z"/>
		<path d="M116.5,46v-0.2c0-0.5,0.3-0.8,0.9-0.8c0.6,0,0.9,0.3,0.9,0.8V46c0,0.5-0.3,0.8-0.9,0.8C116.8,46.8,116.5,46.5,116.5,46z
			 M116.7,48.9h1.4v9h-1.4V48.9z"/>
		<path d="M123,57.9c-1,0-1.5-0.6-1.5-1.5v-6.3H120v-1.2h0.8c0.6,0,0.8-0.2,0.8-0.8v-1.7h1.3v2.5h2v1.2h-2v6.5h1.8v1.2H123z"/>
		<path d="M133,48.9h1.4l-4,11.1c-0.4,1.1-0.8,1.4-2.1,1.4h-0.7v-1.2h1.4l0.7-1.9l-3.4-9.3h1.4l2.2,6.1l0.4,1.5h0.1l0.5-1.5
			L133,48.9z"/>
	</g>
</g>
</svg>
